<?xml version="1.0" encoding="utf-8"?>
<!-- Generator: Adobe Illustrator 18.0.0, SVG Export Plug-In . SVG Version: 6.00 Build 0)  -->
<!DOCTYPE svg PUBLIC "-//W3C//DTD SVG 1.1//EN" "http://www.w3.org/Graphics/SVG/1.1/DTD/svg11.dtd">
<svg version="1.1" id="Layer_1" xmlns="http://www.w3.org/2000/svg" xmlns:xlink="http://www.w3.org/1999/xlink" x="0px" y="0px"
	 viewBox="470 270 20 20" enable-background="new 470 270 20 20" xml:space="preserve">
<g>
	<polyline fill="none" stroke="#EFEFEF" stroke-miterlimit="10" points="471.4,275.6 480,284.2 488.6,275.6 	"/>
	<polygon fill="none" stroke="#EFEFEF" stroke-miterlimit="10" points="488.9,275.8 480,284.7 471.1,275.8 471.7,275.3 480,283.6 
		488.3,275.3 	"/>
</g>
</svg>
