<?xml version="1.0" encoding="utf-8"?>
<!-- Generator: Adobe Illustrator 18.1.0, SVG Export Plug-In . SVG Version: 6.00 Build 0)  -->
<!DOCTYPE svg PUBLIC "-//W3C//DTD SVG 1.1//EN" "http://www.w3.org/Graphics/SVG/1.1/DTD/svg11.dtd">
<svg version="1.1" id="Layer_1" xmlns:sketch="http://www.bohemiancoding.com/sketch/ns"
	 xmlns="http://www.w3.org/2000/svg" xmlns:xlink="http://www.w3.org/1999/xlink" x="0px" y="0px" viewBox="-384 301 22 11"
	 enable-background="new -384 301 22 11" xml:space="preserve">
<title></title>
<g id="miu">
	<g id="editor_list_view_hambuger_menu_outline_stroke">
		<g>
			<path id="path-1" fill="#FFFFFF" d="M-383.4,301c-0.3,0-0.6,0.2-0.6,0.5c0,0.3,0.3,0.5,0.6,0.5h20.8c0.3,0,0.6-0.2,0.6-0.5
				c0-0.3-0.3-0.5-0.6-0.5H-383.4L-383.4,301z M-383.4,306c-0.3,0-0.6,0.2-0.6,0.5c0,0.3,0.3,0.5,0.6,0.5h20.8
				c0.3,0,0.6-0.2,0.6-0.5c0-0.3-0.3-0.5-0.6-0.5H-383.4L-383.4,306z M-383.4,311c-0.3,0-0.6,0.2-0.6,0.5c0,0.3,0.3,0.5,0.6,0.5
				h20.8c0.3,0,0.6-0.2,0.6-0.5c0-0.3-0.3-0.5-0.6-0.5H-383.4L-383.4,311z"/>
		</g>
		<g>
			<path id="path-1_1_" fill="#FFFFFF" d="M-383.4,301c-0.3,0-0.6,0.2-0.6,0.5c0,0.3,0.3,0.5,0.6,0.5h20.8c0.3,0,0.6-0.2,0.6-0.5
				c0-0.3-0.3-0.5-0.6-0.5H-383.4L-383.4,301z M-383.4,306c-0.3,0-0.6,0.2-0.6,0.5c0,0.3,0.3,0.5,0.6,0.5h20.8
				c0.3,0,0.6-0.2,0.6-0.5c0-0.3-0.3-0.5-0.6-0.5H-383.4L-383.4,306z M-383.4,311c-0.3,0-0.6,0.2-0.6,0.5c0,0.3,0.3,0.5,0.6,0.5
				h20.8c0.3,0,0.6-0.2,0.6-0.5c0-0.3-0.3-0.5-0.6-0.5H-383.4L-383.4,311z"/>
		</g>
	</g>
</g>
</svg>
